Item,Entity,Percent,Margin
Change government policy,FED BIH,0.09954864525993919,0.019623322324205116
Change government policy,RS,0.05837945336023793,0.022396853219747003
Change government policy,BRCKO DISTRIKT,0.10171985009574556,0.08642868508382628
Punish religious critic,FED BIH,0.05877543015511176,0.01617218002727136
Punish religious critic,RS,0.04742417340988708,0.020093109556805714
Punish religious critic,BRCKO DISTRIKT,0.0480609499384584,0.062450433022364034
Retaliate against another group,FED BIH,0.05870434394464348,0.015521222176682451
Retaliate against another group,RS,0.04511212580178823,0.016671191089220886
Retaliate against another group,BRCKO DISTRIKT,0.026239155501068506,0.02048384680382326
Enforce religious law,FED BIH,0.043934964878818095,0.013476074209296035
Enforce religious law,RS,0.03539112713615103,0.01568757667860038
Enforce religious law,BRCKO DISTRIKT,0.01703321341070816,0.013687553807473917
